{
  "project_info": {
    "project_number": "882122445575",
    "project_id": "authorisation-19485",
    "storage_bucket": "authorisation-19485.appspot.com"
  },
  "client": [
    {
      "client_info": {
        "mobilesdk_app_id": "1:882122445575:android:d1dc202a73f43158e1aba2",
        "android_client_info": {
          "package_name": "com.example.ragacdavaleba"
        }
      },
      "oauth_client": [
        {
          "client_id": "882122445575-1bvmecjs6t5mka17l5rog2msvn3l1olv.apps.googleusercontent.com",
          "client_type": 3
        }
      ],
      "api_key": [
        {
          "current_key": "AIzaSyCAp9BrjFEWkFsfoOHuPvmoWDIZrNpz6aI"
        }
      ],
      "services": {
        "appinvite_service": {
          "other_platform_oauth_client": [
            {
              "client_id": "882122445575-1bvmecjs6t5mka17l5rog2msvn3l1olv.apps.googleusercontent.com",
              "client_type": 3
            }
          ]
        }
      }
    }
  ],
  "configuration_version": "1"
}